{
	"defaults": {
		"pattern": "kanji",
		"literal": false,
		"interval": 180,
		"thin": 20,
		"wide": 48,
		"groupby": 0,
		"unseen": true,
		"tooltips": false,
		"kanjionly": true,
		"gitlab_access_token": "",
		"gitlab_project_id": "",
		"gitlab_branch": "main",
		"gitlab_file_path": ""
	}
}
